C:\Users\luigi\Documents\bitbucket\compagnieaeriennecda-b\Luigi_Carole\CompagnieAerienneSwing\src\main\java\dao\ClientDAO.java
C:\Users\luigi\Documents\bitbucket\compagnieaeriennecda-b\Luigi_Carole\CompagnieAerienneSwing\src\main\java\dao\PassagerDAO.java
C:\Users\luigi\Documents\bitbucket\compagnieaeriennecda-b\Luigi_Carole\CompagnieAerienneSwing\src\main\java\com\compagnieaerienneswing\principal\personne.java
C:\Users\luigi\Documents\bitbucket\compagnieaeriennecda-b\Luigi_Carole\CompagnieAerienneSwing\src\main\java\com\compagnieaerienneswing\principal\passager.java
C:\Users\luigi\Documents\bitbucket\compagnieaeriennecda-b\Luigi_Carole\CompagnieAerienneSwing\src\main\java\com\compagnieaerienneswing\principal\vol.java
C:\Users\luigi\Documents\bitbucket\compagnieaeriennecda-b\Luigi_Carole\CompagnieAerienneSwing\src\main\java\dao\CompagnieDAO.java
C:\Users\luigi\Documents\bitbucket\compagnieaeriennecda-b\Luigi_Carole\CompagnieAerienneSwing\src\main\java\com\compagnieaerienneswing\principal\compagnie.java
C:\Users\luigi\Documents\bitbucket\compagnieaeriennecda-b\Luigi_Carole\CompagnieAerienneSwing\src\main\java\com\compagnieaerienneswing\principal\client.java
C:\Users\luigi\Documents\bitbucket\compagnieaeriennecda-b\Luigi_Carole\CompagnieAerienneSwing\src\main\java\com\compagnieaerienneswing\principal\pays.java
C:\Users\luigi\Documents\bitbucket\compagnieaeriennecda-b\Luigi_Carole\CompagnieAerienneSwing\src\main\java\com\compagnieaerienneswing\principal\reservation.java
C:\Users\luigi\Documents\bitbucket\compagnieaeriennecda-b\Luigi_Carole\CompagnieAerienneSwing\src\main\java\com\compagnieaerienneswing\principal\aeroport.java
C:\Users\luigi\Documents\bitbucket\compagnieaeriennecda-b\Luigi_Carole\CompagnieAerienneSwing\src\main\java\dao\Connexion.java
C:\Users\luigi\Documents\bitbucket\compagnieaeriennecda-b\Luigi_Carole\CompagnieAerienneSwing\src\main\java\dao\AeroportDAO.java
C:\Users\luigi\Documents\bitbucket\compagnieaeriennecda-b\Luigi_Carole\CompagnieAerienneSwing\src\main\java\dao\ReservationDAO.java
C:\Users\luigi\Documents\bitbucket\compagnieaeriennecda-b\Luigi_Carole\CompagnieAerienneSwing\src\main\java\com\compagnieaerienneswing\principal\escale.java
C:\Users\luigi\Documents\bitbucket\compagnieaeriennecda-b\Luigi_Carole\CompagnieAerienneSwing\src\main\java\dao\PaysDAO.java
C:\Users\luigi\Documents\bitbucket\compagnieaeriennecda-b\Luigi_Carole\CompagnieAerienneSwing\src\main\java\dao\EscaleDAO.java
C:\Users\luigi\Documents\bitbucket\compagnieaeriennecda-b\Luigi_Carole\CompagnieAerienneSwing\src\main\java\dao\PersonneDAO.java
C:\Users\luigi\Documents\bitbucket\compagnieaeriennecda-b\Luigi_Carole\CompagnieAerienneSwing\src\main\java\dao\VolDAO.java
